{
  "titre": "Rush-hour",
  "carte": {
    "image": "rush-hour.webp",
    "url": "rush-hour",
    "redirection": "https://gitlab.com/DENECHERE_Killian/rushhour",
    "description": {
      "fr": "La version python du jeu de résolution d'embouteillages",
      "en": "The python developped version of the eponym board game"
    }
  }
}
